('C:\\Users\\can_r\\PycharmProjects\\RMCMD_CLIENT\\dist\\client.exe',
 True,
 False,
 False,
 None,
 None,
 False,
 False,
 u'<?xml version="1.0" encoding="UTF-8" standalone="yes"?><assembly manifestVersion="1.0" xmlns="urn:schemas-microsoft-com:asm.v1"><assemblyIdentity name="client" processorArchitecture="x86" type="win32" version="1.0.0.0"/><dependency><dependentAssembly><assemblyIdentity name="Microsoft.VC90.CRT" processorArchitecture="x86" publicKeyToken="1fc8b3b9a1e18e3b" type="win32" version="9.0.21022.8"/><compatibility xmlns="urn:schemas-microsoft-com:compatibility.v1"/></dependentAssembly></dependency><compatibility xmlns="urn:schemas-microsoft-com:compatibility.v1"><application><supportedOS Id="{1f676c76-80e1-4239-95bb-83d0f6d0da78}"/><supportedOS Id="{4a2f28e3-53b9-4441-ba9c-d69d4a4a6e38}"/><supportedOS Id="{e2011457-1546-43c5-a5fe-008deee3d3f0}"/><supportedOS Id="{35138b9a-5d96-4fbd-8e2d-a2440225f93a}"/><supportedOS Id="{8e0f7a12-bfb3-4fe8-b9a5-48fd50a15a9a}"/></application></compatibility></assembly>',
 True,
 'client.pkg',
 [('out00-PYZ.pyz',
   'C:\\Users\\can_r\\PycharmProjects\\RMCMD_CLIENT\\build\\client\\out00-PYZ.pyz',
   'PYZ'),
  ('struct', 'c:\\python27\\lib\\struct.pyc', 'PYMODULE'),
  ('pyimod01_os_path',
   'c:\\python27\\lib\\site-packages\\PyInstaller\\loader\\pyimod01_os_path.pyc',
   'PYMODULE'),
  ('pyimod02_archive',
   'c:\\python27\\lib\\site-packages\\PyInstaller\\loader\\pyimod02_archive.pyc',
   'PYMODULE'),
  ('pyimod03_importers',
   'c:\\python27\\lib\\site-packages\\PyInstaller\\loader\\pyimod03_importers.pyc',
   'PYMODULE'),
  ('pyiboot01_bootstrap',
   'c:\\python27\\lib\\site-packages\\PyInstaller\\loader\\pyiboot01_bootstrap.py',
   'PYSOURCE'),
  ('client',
   'C:\\Users\\can_r\\PycharmProjects\\RMCMD_CLIENT\\client.py',
   'PYSOURCE'),
  (u'Microsoft.VC90.CRT.manifest',
   u'C:\\Windows\\WinSxS\\Manifests\\x86_microsoft.vc90.crt_1fc8b3b9a1e18e3b_9.0.30729.9279_none_50939ec6bcb7c97c.manifest',
   'BINARY'),
  (u'msvcr90.dll',
   u'C:\\Windows\\WinSxS\\x86_microsoft.vc90.crt_1fc8b3b9a1e18e3b_9.0.30729.9279_none_50939ec6bcb7c97c\\msvcr90.dll',
   'BINARY'),
  (u'msvcp90.dll',
   u'C:\\Windows\\WinSxS\\x86_microsoft.vc90.crt_1fc8b3b9a1e18e3b_9.0.30729.9279_none_50939ec6bcb7c97c\\msvcp90.dll',
   'BINARY'),
  (u'msvcm90.dll',
   u'C:\\Windows\\WinSxS\\x86_microsoft.vc90.crt_1fc8b3b9a1e18e3b_9.0.30729.9279_none_50939ec6bcb7c97c\\msvcm90.dll',
   'BINARY'),
  ('python27.dll', 'C:\\Windows\\system32\\python27.dll', 'BINARY'),
  ('unicodedata', 'c:\\python27\\DLLs\\unicodedata.pyd', 'EXTENSION'),
  ('_hashlib', 'c:\\python27\\DLLs\\_hashlib.pyd', 'EXTENSION'),
  ('select', 'c:\\python27\\DLLs\\select.pyd', 'EXTENSION'),
  ('bz2', 'c:\\python27\\DLLs\\bz2.pyd', 'EXTENSION'),
  ('_ssl', 'c:\\python27\\DLLs\\_ssl.pyd', 'EXTENSION'),
  ('_socket', 'c:\\python27\\DLLs\\_socket.pyd', 'EXTENSION'),
  ('client.exe.manifest',
   'C:\\Users\\can_r\\PycharmProjects\\RMCMD_CLIENT\\build\\client\\client.exe.manifest',
   'BINARY'),
  ('pyi-windows-manifest-filename client.exe.manifest', '', 'OPTION')],
 [],
 False,
 False,
 1513529517L,
 [('run.exe',
   'c:\\python27\\lib\\site-packages\\PyInstaller\\bootloader\\Windows-32bit\\run.exe',
   'EXECUTABLE')])
